[
  {
    "blockNumber": 2912406,
    "timestamp": 1483228771,
    "date": "2016-12-31T23:59:31.000Z"
  },
  {
    "blockNumber": 2912407,
    "timestamp": 1483228803,
    "date": "2017-01-01T00:00:03.000Z"
  },
  {
    "blockNumber": 3100153,
    "timestamp": 1485907195,
    "date": "2017-01-31T23:59:55.000Z"
  },
  {
    "blockNumber": 3100154,
    "timestamp": 1485907208,
    "date": "2017-02-01T00:00:08.000Z"
  },
  {
    "blockNumber": 3269187,
    "timestamp": 1488326397,
    "date": "2017-02-28T23:59:57.000Z"
  },
  {
    "blockNumber": 3269188,
    "timestamp": 1488326411,
    "date": "2017-03-01T00:00:11.000Z"
  },
  {
    "blockNumber": 3454528,
    "timestamp": 1491004749,
    "date": "2017-03-31T23:59:09.000Z"
  },
  {
    "blockNumber": 3454529,
    "timestamp": 1491004816,
    "date": "2017-04-01T00:00:16.000Z"
  },
  {
    "blockNumber": 3629090,
    "timestamp": 1493596794,
    "date": "2017-04-30T23:59:54.000Z"
  },
  {
    "blockNumber": 3629091,
    "timestamp": 1493596820,
    "date": "2017-05-01T00:00:20.000Z"
  },
  {
    "blockNumber": 3800775,
    "timestamp": 1496275190,
    "date": "2017-05-31T23:59:50.000Z"
  },
  {
    "blockNumber": 3800776,
    "timestamp": 1496275215,
    "date": "2017-06-01T00:00:15.000Z"
  },
  {
    "blockNumber": 3955158,
    "timestamp": 1498867196,
    "date": "2017-06-30T23:59:56.000Z"
  },
  {
    "blockNumber": 3955159,
    "timestamp": 1498867211,
    "date": "2017-07-01T00:00:11.000Z"
  },
  {
    "blockNumber": 4101694,
    "timestamp": 1501545586,
    "date": "2017-07-31T23:59:46.000Z"
  },
  {
    "blockNumber": 4101695,
    "timestamp": 1501545646,
    "date": "2017-08-01T00:00:46.000Z"
  },
  {
    "blockNumber": 4225037,
    "timestamp": 1504223996,
    "date": "2017-08-31T23:59:56.000Z"
  },
  {
    "blockNumber": 4225038,
    "timestamp": 1504224059,
    "date": "2017-09-01T00:00:59.000Z"
  },
  {
    "blockNumber": 4326060,
    "timestamp": 1506815994,
    "date": "2017-09-30T23:59:54.000Z"
  },
  {
    "blockNumber": 4326061,
    "timestamp": 1506816025,
    "date": "2017-10-01T00:00:25.000Z"
  },
  {
    "blockNumber": 4467004,
    "timestamp": 1509494392,
    "date": "2017-10-31T23:59:52.000Z"
  },
  {
    "blockNumber": 4467005,
    "timestamp": 1509494404,
    "date": "2017-11-01T00:00:04.000Z"
  },
  {
    "blockNumber": 4652925,
    "timestamp": 1512086396,
    "date": "2017-11-30T23:59:56.000Z"
  },
  {
    "blockNumber": 4652926,
    "timestamp": 1512086419,
    "date": "2017-12-01T00:00:19.000Z"
  },
  {
    "blockNumber": 4832685,
    "timestamp": 1514764787,
    "date": "2017-12-31T23:59:47.000Z"
  },
  {
    "blockNumber": 4832686,
    "timestamp": 1514764802,
    "date": "2018-01-01T00:00:02.000Z"
  },
  {
    "blockNumber": 5008421,
    "timestamp": 1517443192,
    "date": "2018-01-31T23:59:52.000Z"
  },
  {
    "blockNumber": 5008422,
    "timestamp": 1517443209,
    "date": "2018-02-01T00:00:09.000Z"
  },
  {
    "blockNumber": 5174124,
    "timestamp": 1519862398,
    "date": "2018-02-28T23:59:58.000Z"
  },
  {
    "blockNumber": 5174125,
    "timestamp": 1519862402,
    "date": "2018-03-01T00:00:02.000Z"
  },
  {
    "blockNumber": 5357794,
    "timestamp": 1522540798,
    "date": "2018-03-31T23:59:58.000Z"
  },
  {
    "blockNumber": 5357795,
    "timestamp": 1522540805,
    "date": "2018-04-01T00:00:05.000Z"
  },
  {
    "blockNumber": 5534862,
    "timestamp": 1525132785,
    "date": "2018-04-30T23:59:45.000Z"
  },
  {
    "blockNumber": 5534863,
    "timestamp": 1525132803,
    "date": "2018-05-01T00:00:03.000Z"
  },
  {
    "blockNumber": 5710963,
    "timestamp": 1527811179,
    "date": "2018-05-31T23:59:39.000Z"
  },
  {
    "blockNumber": 5710964,
    "timestamp": 1527811200,
    "date": "2018-06-01T00:00:00.000Z"
  },
  {
    "blockNumber": 5883489,
    "timestamp": 1530403186,
    "date": "2018-06-30T23:59:46.000Z"
  },
  {
    "blockNumber": 5883490,
    "timestamp": 1530403205,
    "date": "2018-07-01T00:00:05.000Z"
  },
  {
    "blockNumber": 6065979,
    "timestamp": 1533081593,
    "date": "2018-07-31T23:59:53.000Z"
  },
  {
    "blockNumber": 6065980,
    "timestamp": 1533081617,
    "date": "2018-08-01T00:00:17.000Z"
  },
  {
    "blockNumber": 6249398,
    "timestamp": 1535759981,
    "date": "2018-08-31T23:59:41.000Z"
  },
  {
    "blockNumber": 6249399,
    "timestamp": 1535760013,
    "date": "2018-09-01T00:00:13.000Z"
  },
  {
    "blockNumber": 6430272,
    "timestamp": 1538351983,
    "date": "2018-09-30T23:59:43.000Z"
  },
  {
    "blockNumber": 6430273,
    "timestamp": 1538352012,
    "date": "2018-10-01T00:00:12.000Z"
  },
  {
    "blockNumber": 6620475,
    "timestamp": 1541030395,
    "date": "2018-10-31T23:59:55.000Z"
  },
  {
    "blockNumber": 6620476,
    "timestamp": 1541030420,
    "date": "2018-11-01T00:00:20.000Z"
  },
  {
    "blockNumber": 6803255,
    "timestamp": 1543622380,
    "date": "2018-11-30T23:59:40.000Z"
  },
  {
    "blockNumber": 6803256,
    "timestamp": 1543622400,
    "date": "2018-12-01T00:00:00.000Z"
  },
  {
    "blockNumber": 6988614,
    "timestamp": 1546300782,
    "date": "2018-12-31T23:59:42.000Z"
  },
  {
    "blockNumber": 6988615,
    "timestamp": 1546300801,
    "date": "2019-01-01T00:00:01.000Z"
  },
  {
    "blockNumber": 7156136,
    "timestamp": 1548979161,
    "date": "2019-01-31T23:59:21.000Z"
  },
  {
    "blockNumber": 7156137,
    "timestamp": 1548979210,
    "date": "2019-02-01T00:00:10.000Z"
  },
  {
    "blockNumber": 7280859,
    "timestamp": 1551398390,
    "date": "2019-02-28T23:59:50.000Z"
  },
  {
    "blockNumber": 7280860,
    "timestamp": 1551398408,
    "date": "2019-03-01T00:00:08.000Z"
  },
  {
    "blockNumber": 7479256,
    "timestamp": 1554076786,
    "date": "2019-03-31T23:59:46.000Z"
  },
  {
    "blockNumber": 7479257,
    "timestamp": 1554076808,
    "date": "2019-04-01T00:00:08.000Z"
  },
  {
    "blockNumber": 7671849,
    "timestamp": 1556668792,
    "date": "2019-04-30T23:59:52.000Z"
  },
  {
    "blockNumber": 7671850,
    "timestamp": 1556668816,
    "date": "2019-05-01T00:00:16.000Z"
  },
  {
    "blockNumber": 7870424,
    "timestamp": 1559347196,
    "date": "2019-05-31T23:59:56.000Z"
  },
  {
    "blockNumber": 7870425,
    "timestamp": 1559347203,
    "date": "2019-06-01T00:00:03.000Z"
  },
  {
    "blockNumber": 8062292,
    "timestamp": 1561939196,
    "date": "2019-06-30T23:59:56.000Z"
  },
  {
    "blockNumber": 8062293,
    "timestamp": 1561939203,
    "date": "2019-07-01T00:00:03.000Z"
  },
  {
    "blockNumber": 8261511,
    "timestamp": 1564617591,
    "date": "2019-07-31T23:59:51.000Z"
  },
  {
    "blockNumber": 8261512,
    "timestamp": 1564617614,
    "date": "2019-08-01T00:00:14.000Z"
  },
  {
    "blockNumber": 8461046,
    "timestamp": 1567295997,
    "date": "2019-08-31T23:59:57.000Z"
  },
  {
    "blockNumber": 8461047,
    "timestamp": 1567296012,
    "date": "2019-09-01T00:00:12.000Z"
  },
  {
    "blockNumber": 8653170,
    "timestamp": 1569887975,
    "date": "2019-09-30T23:59:35.000Z"
  },
  {
    "blockNumber": 8653171,
    "timestamp": 1569888000,
    "date": "2019-10-01T00:00:00.000Z"
  },
  {
    "blockNumber": 8849470,
    "timestamp": 1572566396,
    "date": "2019-10-31T23:59:56.000Z"
  },
  {
    "blockNumber": 8849471,
    "timestamp": 1572566400,
    "date": "2019-11-01T00:00:00.000Z"
  },
  {
    "blockNumber": 9029509,
    "timestamp": 1575158378,
    "date": "2019-11-30T23:59:38.000Z"
  },
  {
    "blockNumber": 9029510,
    "timestamp": 1575158461,
    "date": "2019-12-01T00:01:01.000Z"
  },
  {
    "blockNumber": 9193265,
    "timestamp": 1577836785,
    "date": "2019-12-31T23:59:45.000Z"
  },
  {
    "blockNumber": 9193266,
    "timestamp": 1577836811,
    "date": "2020-01-01T00:00:11.000Z"
  },
  {
    "blockNumber": 9393153,
    "timestamp": 1580515198,
    "date": "2020-01-31T23:59:58.000Z"
  },
  {
    "blockNumber": 9393154,
    "timestamp": 1580515206,
    "date": "2020-02-01T00:00:06.000Z"
  },
  {
    "blockNumber": 9581791,
    "timestamp": 1583020775,
    "date": "2020-02-29T23:59:35.000Z"
  },
  {
    "blockNumber": 9581792,
    "timestamp": 1583020817,
    "date": "2020-03-01T00:00:17.000Z"
  },
  {
    "blockNumber": 9782601,
    "timestamp": 1585699197,
    "date": "2020-03-31T23:59:57.000Z"
  },
  {
    "blockNumber": 9782602,
    "timestamp": 1585699212,
    "date": "2020-04-01T00:00:12.000Z"
  },
  {
    "blockNumber": 9976963,
    "timestamp": 1588291155,
    "date": "2020-04-30T23:59:15.000Z"
  },
  {
    "blockNumber": 9976964,
    "timestamp": 1588291205,
    "date": "2020-05-01T00:00:05.000Z"
  },
  {
    "blockNumber": 10176689,
    "timestamp": 1590969590,
    "date": "2020-05-31T23:59:50.000Z"
  },
  {
    "blockNumber": 10176690,
    "timestamp": 1590969601,
    "date": "2020-06-01T00:00:01.000Z"
  },
  {
    "blockNumber": 10370273,
    "timestamp": 1593561580,
    "date": "2020-06-30T23:59:40.000Z"
  },
  {
    "blockNumber": 10370274,
    "timestamp": 1593561621,
    "date": "2020-07-01T00:00:21.000Z"
  },
  {
    "blockNumber": 10570484,
    "timestamp": 1596239949,
    "date": "2020-07-31T23:59:09.000Z"
  },
  {
    "blockNumber": 10570485,
    "timestamp": 1596240012,
    "date": "2020-08-01T00:00:12.000Z"
  },
  {
    "blockNumber": 10771924,
    "timestamp": 1598918385,
    "date": "2020-08-31T23:59:45.000Z"
  },
  {
    "blockNumber": 10771925,
    "timestamp": 1598918402,
    "date": "2020-09-01T00:00:02.000Z"
  },
  {
    "blockNumber": 10966873,
    "timestamp": 1601510385,
    "date": "2020-09-30T23:59:45.000Z"
  },
  {
    "blockNumber": 10966874,
    "timestamp": 1601510410,
    "date": "2020-10-01T00:00:10.000Z"
  },
  {
    "blockNumber": 11167816,
    "timestamp": 1604188780,
    "date": "2020-10-31T23:59:40.000Z"
  },
  {
    "blockNumber": 11167817,
    "timestamp": 1604188803,
    "date": "2020-11-01T00:00:03.000Z"
  },
  {
    "blockNumber": 11363269,
    "timestamp": 1606780796,
    "date": "2020-11-30T23:59:56.000Z"
  },
  {
    "blockNumber": 11363270,
    "timestamp": 1606780806,
    "date": "2020-12-01T00:00:06.000Z"
  },
  {
    "blockNumber": 11565018,
    "timestamp": 1609459197,
    "date": "2020-12-31T23:59:57.000Z"
  },
  {
    "blockNumber": 11565019,
    "timestamp": 1609459200,
    "date": "2021-01-01T00:00:00.000Z"
  },
  {
    "blockNumber": 11766938,
    "timestamp": 1612137595,
    "date": "2021-01-31T23:59:55.000Z"
  },
  {
    "blockNumber": 11766939,
    "timestamp": 1612137604,
    "date": "2021-02-01T00:00:04.000Z"
  },
  {
    "blockNumber": 11948959,
    "timestamp": 1614556793,
    "date": "2021-02-28T23:59:53.000Z"
  },
  {
    "blockNumber": 11948960,
    "timestamp": 1614556845,
    "date": "2021-03-01T00:00:45.000Z"
  },
  {
    "blockNumber": 12150244,
    "timestamp": 1617235197,
    "date": "2021-03-31T23:59:57.000Z"
  },
  {
    "blockNumber": 12150245,
    "timestamp": 1617235206,
    "date": "2021-04-01T00:00:06.000Z"
  },
  {
    "blockNumber": 12344944,
    "timestamp": 1619827199,
    "date": "2021-04-30T23:59:59.000Z"
  },
  {
    "blockNumber": 12344945,
    "timestamp": 1619827245,
    "date": "2021-05-01T00:00:45.000Z"
  },
  {
    "blockNumber": 12545218,
    "timestamp": 1622505597,
    "date": "2021-05-31T23:59:57.000Z"
  },
  {
    "blockNumber": 12545219,
    "timestamp": 1622505605,
    "date": "2021-06-01T00:00:05.000Z"
  },
  {
    "blockNumber": 12738508,
    "timestamp": 1625097591,
    "date": "2021-06-30T23:59:51.000Z"
  },
  {
    "blockNumber": 12738509,
    "timestamp": 1625097609,
    "date": "2021-07-01T00:00:09.000Z"
  },
  {
    "blockNumber": 12936339,
    "timestamp": 1627775983,
    "date": "2021-07-31T23:59:43.000Z"
  },
  {
    "blockNumber": 12936340,
    "timestamp": 1627776017,
    "date": "2021-08-01T00:00:17.000Z"
  },
  {
    "blockNumber": 13136426,
    "timestamp": 1630454395,
    "date": "2021-08-31T23:59:55.000Z"
  },
  {
    "blockNumber": 13136427,
    "timestamp": 1630454412,
    "date": "2021-09-01T00:00:12.000Z"
  },
  {
    "blockNumber": 13330089,
    "timestamp": 1633046396,
    "date": "2021-09-30T23:59:56.000Z"
  },
  {
    "blockNumber": 13330090,
    "timestamp": 1633046400,
    "date": "2021-10-01T00:00:00.000Z"
  },
  {
    "blockNumber": 13527858,
    "timestamp": 1635724760,
    "date": "2021-10-31T23:59:20.000Z"
  },
  {
    "blockNumber": 13527859,
    "timestamp": 1635724807,
    "date": "2021-11-01T00:00:07.000Z"
  },
  {
    "blockNumber": 13717846,
    "timestamp": 1638316790,
    "date": "2021-11-30T23:59:50.000Z"
  },
  {
    "blockNumber": 13717847,
    "timestamp": 1638316845,
    "date": "2021-12-01T00:00:45.000Z"
  },
  {
    "blockNumber": 13916165,
    "timestamp": 1640995189,
    "date": "2021-12-31T23:59:49.000Z"
  },
  {
    "blockNumber": 13916166,
    "timestamp": 1640995203,
    "date": "2022-01-01T00:00:03.000Z"
  },
  {
    "blockNumber": 14116760,
    "timestamp": 1643673567,
    "date": "2022-01-31T23:59:27.000Z"
  },
  {
    "blockNumber": 14116761,
    "timestamp": 1643673600,
    "date": "2022-02-01T00:00:00.000Z"
  },
  {
    "blockNumber": 14297758,
    "timestamp": 1646092798,
    "date": "2022-02-28T23:59:58.000Z"
  },
  {
    "blockNumber": 14297759,
    "timestamp": 1646092818,
    "date": "2022-03-01T00:00:18.000Z"
  },
  {
    "blockNumber": 14497033,
    "timestamp": 1648771196,
    "date": "2022-03-31T23:59:56.000Z"
  },
  {
    "blockNumber": 14497034,
    "timestamp": 1648771221,
    "date": "2022-04-01T00:00:21.000Z"
  },
  {
    "blockNumber": 14688629,
    "timestamp": 1651363177,
    "date": "2022-04-30T23:59:37.000Z"
  },
  {
    "blockNumber": 14688630,
    "timestamp": 1651363205,
    "date": "2022-05-01T00:00:05.000Z"
  },
  {
    "blockNumber": 14881676,
    "timestamp": 1654041591,
    "date": "2022-05-31T23:59:51.000Z"
  },
  {
    "blockNumber": 14881677,
    "timestamp": 1654041601,
    "date": "2022-06-01T00:00:01.000Z"
  },
  {
    "blockNumber": 15053225,
    "timestamp": 1656633568,
    "date": "2022-06-30T23:59:28.000Z"
  },
  {
    "blockNumber": 15053226,
    "timestamp": 1656633600,
    "date": "2022-07-01T00:00:00.000Z"
  },
  {
    "blockNumber": 15253305,
    "timestamp": 1659311998,
    "date": "2022-07-31T23:59:58.000Z"
  },
  {
    "blockNumber": 15253306,
    "timestamp": 1659312016,
    "date": "2022-08-01T00:00:16.000Z"
  },
  {
    "blockNumber": 15449617,
    "timestamp": 1661990375,
    "date": "2022-08-31T23:59:35.000Z"
  },
  {
    "blockNumber": 15449618,
    "timestamp": 1661990403,
    "date": "2022-09-01T00:00:03.000Z"
  },
  {
    "blockNumber": 15649594,
    "timestamp": 1664582399,
    "date": "2022-09-30T23:59:59.000Z"
  },
  {
    "blockNumber": 15649595,
    "timestamp": 1664582411,
    "date": "2022-10-01T00:00:11.000Z"
  },
  {
    "blockNumber": 15871479,
    "timestamp": 1667260799,
    "date": "2022-10-31T23:59:59.000Z"
  },
  {
    "blockNumber": 15871480,
    "timestamp": 1667260811,
    "date": "2022-11-01T00:00:11.000Z"
  },
  {
    "blockNumber": 16086233,
    "timestamp": 1669852799,
    "date": "2022-11-30T23:59:59.000Z"
  },
  {
    "blockNumber": 16086234,
    "timestamp": 1669852811,
    "date": "2022-12-01T00:00:11.000Z"
  },
  {
    "blockNumber": 16308189,
    "timestamp": 1672531199,
    "date": "2022-12-31T23:59:59.000Z"
  },
  {
    "blockNumber": 16308190,
    "timestamp": 1672531211,
    "date": "2023-01-01T00:00:11.000Z"
  },
  {
    "blockNumber": 16530247,
    "timestamp": 1675209599,
    "date": "2023-01-31T23:59:59.000Z"
  },
  {
    "blockNumber": 16530248,
    "timestamp": 1675209611,
    "date": "2023-02-01T00:00:11.000Z"
  },
  {
    "blockNumber": 16730071,
    "timestamp": 1677628799,
    "date": "2023-02-28T23:59:59.000Z"
  },
  {
    "blockNumber": 16730072,
    "timestamp": 1677628811,
    "date": "2023-03-01T00:00:11.000Z"
  },
  {
    "blockNumber": 16950602,
    "timestamp": 1680307199,
    "date": "2023-03-31T23:59:59.000Z"
  },
  {
    "blockNumber": 16950603,
    "timestamp": 1680307211,
    "date": "2023-04-01T00:00:11.000Z"
  },
  {
    "blockNumber": 17162286,
    "timestamp": 1682899199,
    "date": "2023-04-30T23:59:59.000Z"
  },
  {
    "blockNumber": 17162287,
    "timestamp": 1682899223,
    "date": "2023-05-01T00:00:23.000Z"
  },
  {
    "blockNumber": 17382265,
    "timestamp": 1685577599,
    "date": "2023-05-31T23:59:59.000Z"
  },
  {
    "blockNumber": 17382266,
    "timestamp": 1685577611,
    "date": "2023-06-01T00:00:11.000Z"
  },
  {
    "blockNumber": 17595509,
    "timestamp": 1688169599,
    "date": "2023-06-30T23:59:59.000Z"
  },
  {
    "blockNumber": 17595510,
    "timestamp": 1688169611,
    "date": "2023-07-01T00:00:11.000Z"
  },
  {
    "blockNumber": 17816433,
    "timestamp": 1690847999,
    "date": "2023-07-31T23:59:59.000Z"
  },
  {
    "blockNumber": 17816434,
    "timestamp": 1690848011,
    "date": "2023-08-01T00:00:11.000Z"
  },
  {
    "blockNumber": 18037987,
    "timestamp": 1693526399,
    "date": "2023-08-31T23:59:59.000Z"
  },
  {
    "blockNumber": 18037988,
    "timestamp": 1693526411,
    "date": "2023-09-01T00:00:11.000Z"
  },
  {
    "blockNumber": 18251964,
    "timestamp": 1696118399,
    "date": "2023-09-30T23:59:59.000Z"
  },
  {
    "blockNumber": 18251965,
    "timestamp": 1696118411,
    "date": "2023-10-01T00:00:11.000Z"
  },
  {
    "blockNumber": 18473542,
    "timestamp": 1698796799,
    "date": "2023-10-31T23:59:59.000Z"
  },
  {
    "blockNumber": 18473543,
    "timestamp": 1698796811,
    "date": "2023-11-01T00:00:11.000Z"
  },
  {
    "blockNumber": 18687850,
    "timestamp": 1701388799,
    "date": "2023-11-30T23:59:59.000Z"
  },
  {
    "blockNumber": 18687851,
    "timestamp": 1701388811,
    "date": "2023-12-01T00:00:11.000Z"
  },
  {
    "blockNumber": 18908894,
    "timestamp": 1704067199,
    "date": "2023-12-31T23:59:59.000Z"
  },
  {
    "blockNumber": 18908895,
    "timestamp": 1704067211,
    "date": "2024-01-01T00:00:11.000Z"
  },
  {
    "blockNumber": 19129888,
    "timestamp": 1706745599,
    "date": "2024-01-31T23:59:59.000Z"
  },
  {
    "blockNumber": 19129889,
    "timestamp": 1706745611,
    "date": "2024-02-01T00:00:11.000Z"
  },
  {
    "blockNumber": 19336606,
    "timestamp": 1709251199,
    "date": "2024-02-29T23:59:59.000Z"
  },
  {
    "blockNumber": 19336607,
    "timestamp": 1709251211,
    "date": "2024-03-01T00:00:11.000Z"
  },
  {
    "blockNumber": 19557288,
    "timestamp": 1711929599,
    "date": "2024-03-31T23:59:59.000Z"
  },
  {
    "blockNumber": 19557289,
    "timestamp": 1711929611,
    "date": "2024-04-01T00:00:11.000Z"
  },
  {
    "blockNumber": 19771559,
    "timestamp": 1714521599,
    "date": "2024-04-30T23:59:59.000Z"
  },
  {
    "blockNumber": 19771560,
    "timestamp": 1714521611,
    "date": "2024-05-01T00:00:11.000Z"
  },
  {
    "blockNumber": 19993249,
    "timestamp": 1717199999,
    "date": "2024-05-31T23:59:59.000Z"
  },
  {
    "blockNumber": 19993250,
    "timestamp": 1717200011,
    "date": "2024-06-01T00:00:11.000Z"
  },
  {
    "blockNumber": 20207948,
    "timestamp": 1719791999,
    "date": "2024-06-30T23:59:59.000Z"
  },
  {
    "blockNumber": 20207949,
    "timestamp": 1719792011,
    "date": "2024-07-01T00:00:11.000Z"
  },
  {
    "blockNumber": 20429972,
    "timestamp": 1722470399,
    "date": "2024-07-31T23:59:59.000Z"
  },
  {
    "blockNumber": 20429973,
    "timestamp": 1722470411,
    "date": "2024-08-01T00:00:11.000Z"
  }
]